…
backlash_data
```

```
## # A tibble: 25 x 3
##    Type                    Answer         Proportion
##    <chr>                   <chr>               <dbl>
##  1 Historical Depictions   Often              0.296 
##  2 Historical Depictions   Somewhat Often     0.422 
##  3 Historical Depictions   Neutral            0.127 
##  4 Historical Depictions   Somewhat Rare      0.113 
##  5 Historical Depictions   Rare               0.0423
##  6 Political Insensitivity Often              0.414 
##  7 Political Insensitivity Somewhat Often     0.386 
##  8 Political Insensitivity Neutral            0.114 
##  9 Political Insensitivity Somewhat Rare      0.0571
## 10 Political Insensitivity Rare               0.0286
## # ... with 15 more rows
```
…
```
## # A tibble: 24 x 3
##    Type                          Answer    Proportion
##    <chr>                         <chr>          <dbl>
##  1 Social Movement Organizations Never         0.0149
##  2 Social Movement Organizations Sometimes     0.269 
##  3 Social Movement Organizations Often         0.463 
##  4 Social Movement Organizations Always        0.254 
##  5 Religious Movements           Never         0.477 
##  6 Religious Movements           Sometimes     0.386 
##  7 Religious Movements           Often         0.114 
##  8 Religious Movements           Always        0.0227
##  9 Campaigning                   Never         0.0781
## 10 Campaigning                   Sometimes     0.406 
## # ... with 14 more rows
```
…
